Maison depart => Botte cuir chutte amortie 4
depart grotte => stick / lingot fer /cuir / 5 rubis / potion soin
Chateau =>
   1 stick / 1 cuir
   1 stick / 2 Rubis
coco =>
    stick / cuir
    stick / arrow / cuir/ 2 bombes
Souterain =>
   1 stick / 1 cuir / 2 Rubis
   2 bombes / cuir / 2 rubis / stick
   3 rubis / lingot fer / stick / cuir
   4 rubis / lingot or / stick / cuir
Coco =>
   stick / lingot fer / 2 bombe
   stick / 2 rubis
   stick / cuir / 2 rubis
   5 Rubis
   5 Rubis / potion
Temple 1 =>
    lingot or / potion soin
    cuir / potion soin
    
    
    
    
    5 arrow / potion soin
    3 arrow / 2 rubis / cuir
    stick / lingot fer / potion soin
    lingot fer or / stick / 2 bombe et rubis
    lingot fer / cuir / potion soin
    cuir / stick / 3 Rubis
    5 arrow / 5 Rubis / cuir
    2 arrow / 3 Rubis / cuir / stick
    2 bombes / 5 rubis / lingot fer / potion / stick